[
    {
        "name": "your movements become rigid",
        "trigger_text": "^your movements become rigid",
        "voice_alert": "stop using blunt"
    },
    {
        "name": "you are affected by imprecision",
        "trigger_text": "^you are affected by imprecision.",
        "voice_alert": "don't use piercing weapons, back stab or fire based spells"
    },
    {
        "name": "you feel very unlucky",
        "trigger_text": "^you feel very unlucky.",
        "voice_alert": "don't use slashing weapons and or magic based spell"
    },
    {
        "name": "you lose your coordination",
        "trigger_text": "^you lose your coordination.",
        "voice_alert": " don't use hand to hand,  poison based/disease based spells"
    }
]
