[
    {
        "name": "you are stunned as a huge foot slams into the ground",
        "trigger_text": "^you are stunned as a huge foot slams into the ground.",
        "voice_alert": "^you are stunned as a huge foot slams into the ground."
    },
    {
        "name": "you are knocked back in a wave of snow and debris",
        "trigger_text": "^you are knocked back in a wave of snow and debris.",
        "voice_alert": "^you are knocked back in a wave of snow and debris."
    }
]
