[
    {
        "name": "your body is seared by unimaginable heat",
        "trigger_text": "^your body is seared by unimaginable heat!",
        "voice_alert": "^your body is seared by unimaginable heat!"
    },
    {
        "name": "the ground spasms around you",
        "trigger_text": "^the ground spasms around you.",
        "voice_alert": "^the ground spasms around you."
    }
]
